EESchema Schematic File Version 4
LIBS:Firstplace-cache
EELAYER 26 0
EELAYER END
$Descr A4 11693 8268
encoding utf-8
Sheet 1 1
Title ""
Date "19 oct 2012"
Rev ""
Comp ""
Comment1 ""
Comment2 ""
Comment3 ""
Comment4 ""
$EndDescr
$Comp
L power:GND #PWR01
U 1 1 5080AA99
P 9150 2300
F 0 "#PWR01" H 9150 2050 50  0001 C CNN
F 1 "GND" H 9150 2150 50  0000 C CNN
F 2 "" H 9150 2300 50  0000 C CNN
F 3 "" H 9150 2300 50  0000 C CNN
	1    9150 2300
	0    1    1    0   
$EndComp
$Comp
L power:+3.3V #PWR02
U 1 1 5080AA9F
P 9150 750
F 0 "#PWR02" H 9150 600 50  0001 C CNN
F 1 "+3.3V" H 9150 900 50  0000 C CNN
F 2 "" H 9150 750 50  0000 C CNN
F 3 "" H 9150 750 50  0000 C CNN
	1    9150 750 
	1    0    0    -1  
$EndComp
$Comp
L boosterpack:Ti_Booster_40_J1 J1
U 1 1 5080DB5C
P 9750 1200
F 0 "J1" H 9700 1850 60  0000 C CNN
F 1 "TI_BOOSTER_40_J1" H 9750 550 60  0000 C CNN
F 2 "Connector_PinHeader_2.54mm:PinHeader_1x10_P2.54mm_Vertical" V 10200 1200 60  0001 C CNN
F 3 "" H 9750 1200 60  0001 C CNN
	1    9750 1200
	1    0    0    -1  
$EndComp
$Comp
L boosterpack:Ti_Booster_40_J2 J2
U 1 1 5080DBF4
P 9750 2750
F 0 "J2" H 9700 3400 60  0000 C CNN
F 1 "TI_BOOSTER_40_J2" H 9750 2100 60  0000 C CNN
F 2 "Connector_PinHeader_2.54mm:PinHeader_1x10_P2.54mm_Vertical" V 10200 2750 60  0001 C CNN
F 3 "" H 9750 2750 60  0001 C CNN
	1    9750 2750
	1    0    0    -1  
$EndComp
$Comp
L boosterpack:Ti_Booster_40_J3 J3
U 1 1 5080DC03
P 9750 4300
F 0 "J3" H 9700 4950 60  0000 C CNN
F 1 "TI_BOOSTER_40_J3" H 9750 3650 60  0000 C CNN
F 2 "Connector_PinHeader_2.54mm:PinHeader_1x10_P2.54mm_Vertical" V 10200 4300 60  0001 C CNN
F 3 "" H 9750 4300 60  0001 C CNN
	1    9750 4300
	1    0    0    -1  
$EndComp
$Comp
L boosterpack:Ti_Booster_40_J4 J4
U 1 1 5080DC12
P 9750 5850
F 0 "J4" H 9700 6500 60  0000 C CNN
F 1 "TI_BOOSTER_40_J4" H 9750 5200 60  0000 C CNN
F 2 "Connector_PinHeader_2.54mm:PinHeader_1x10_P2.54mm_Vertical" V 10200 5850 60  0001 C CNN
F 3 "" H 9750 5850 60  0001 C CNN
	1    9750 5850
	1    0    0    -1  
$EndComp
$Comp
L power:GND #PWR03
U 1 1 5080DC79
P 9150 3950
F 0 "#PWR03" H 9150 3700 50  0001 C CNN
F 1 "GND" H 9150 3800 50  0000 C CNN
F 2 "" H 9150 3950 50  0000 C CNN
F 3 "" H 9150 3950 50  0000 C CNN
	1    9150 3950
	0    1    1    0   
$EndComp
$Comp
L Connector_Generic:Conn_01x03 J10
U 1 1 5BD348D2
P 6750 3750
F 0 "J10" H 6830 3792 50  0000 L CNN
F 1 "Reg5V" H 6830 3701 50  0000 L CNN
F 2 "Connector_PinSocket_2.54mm:PinSocket_1x03_P2.54mm_Vertical" V 6750 3750 50  0001 C CNN
F 3 "~" H 6750 3750 50  0001 C CNN
	1    6750 3750
	-1   0    0    -1  
$EndComp
$Comp
L power:GND #PWR0101
U 1 1 5BD35464
P 7050 3750
F 0 "#PWR0101" H 7050 3500 50  0001 C CNN
F 1 "GND" H 7055 3577 50  0000 C CNN
F 2 "" H 7050 3750 50  0001 C CNN
F 3 "" H 7050 3750 50  0001 C CNN
	1    7050 3750
	0    -1   -1   0   
$EndComp
$Comp
L Connector_Generic:Conn_01x04 J8
U 1 1 5BD354D7
P 6050 5500
F 0 "J8" H 6050 5150 50  0000 C CNN
F 1 "MotorCtl_Out" H 6050 5050 50  0000 C CNN
F 2 "Connector_PinSocket_2.54mm:PinSocket_1x04_P2.54mm_Vertical" H 6050 5500 50  0001 C CNN
F 3 "~" H 6050 5500 50  0001 C CNN
	1    6050 5500
	-1   0    0    -1  
$EndComp
$Comp
L Connector_Generic:Conn_01x07 J12
U 1 1 5BD355AC
P 7550 5500
F 0 "J12" H 7550 6050 50  0000 C CNN
F 1 "MotorCtl_In" H 7550 5950 50  0000 C CNN
F 2 "Connector_PinSocket_2.54mm:PinSocket_1x07_P2.54mm_Vertical" H 7550 5500 50  0001 C CNN
F 3 "~" H 7550 5500 50  0001 C CNN
	1    7550 5500
	-1   0    0    -1  
$EndComp
$Comp
L Connector_Generic:Conn_01x07 J11
U 1 1 5BD35688
P 6950 5500
F 0 "J11" H 6950 6050 50  0000 L CNN
F 1 "MotorCtl_Out" H 6750 5950 50  0000 L CNN
F 2 "Connector_PinSocket_2.54mm:PinSocket_1x07_P2.54mm_Vertical" H 6950 5500 50  0001 C CNN
F 3 "~" H 6950 5500 50  0001 C CNN
	1    6950 5500
	1    0    0    -1  
$EndComp
$Comp
L Connector_Generic:Conn_01x12 J9
U 1 1 5BD35721
P 6250 1450
F 0 "J9" H 6170 2167 50  0000 C CNN
F 1 "Sensors" H 6170 2076 50  0000 C CNN
F 2 "Connector_PinHeader_2.54mm:PinHeader_1x12_P2.54mm_Horizontal" H 6250 1450 50  0001 C CNN
F 3 "~" H 6250 1450 50  0001 C CNN
	1    6250 1450
	-1   0    0    -1  
$EndComp
$Comp
L power:GND #PWR0102
U 1 1 5BD358FD
P 6650 2050
F 0 "#PWR0102" H 6650 1800 50  0001 C CNN
F 1 "GND" H 6655 1877 50  0000 C CNN
F 2 "" H 6650 2050 50  0001 C CNN
F 3 "" H 6650 2050 50  0001 C CNN
	1    6650 2050
	1    0    0    -1  
$EndComp
Wire Wire Line
	6450 2050 6650 2050
Wire Wire Line
	6450 1750 6650 1750
Connection ~ 6650 2050
Wire Wire Line
	6450 1450 6650 1450
Wire Wire Line
	6650 1450 6650 1750
Connection ~ 6650 1750
Wire Wire Line
	6450 1150 6650 1150
Wire Wire Line
	6650 1150 6650 1450
Connection ~ 6650 1450
$Comp
L power:+5V #PWR0103
U 1 1 5BD35AA3
P 6800 900
F 0 "#PWR0103" H 6800 750 50  0001 C CNN
F 1 "+5V" H 6815 1073 50  0000 C CNN
F 2 "" H 6800 900 50  0001 C CNN
F 3 "" H 6800 900 50  0001 C CNN
	1    6800 900 
	1    0    0    -1  
$EndComp
Wire Wire Line
	6450 1050 6800 1050
Wire Wire Line
	6450 1350 6800 1350
Wire Wire Line
	6450 1650 6800 1650
Wire Wire Line
	6450 1950 6800 1950
Wire Wire Line
	6800 1650 6800 1950
Wire Wire Line
	6800 900  6800 1050
Connection ~ 6800 1050
Wire Wire Line
	8600 950  8600 1150
Text Label 6900 950  0    50   ~ 0
Front_Dis_Analog
Text Label 6900 1250 0    50   ~ 0
Right_Dis_Analog
Wire Wire Line
	7500 1350 7500 1550
Wire Wire Line
	7650 1450 7650 1850
Text Label 6900 1550 0    50   ~ 0
Ref_Sen1_Dig
Text Label 6900 1850 0    50   ~ 0
Ref_Sen2_Dig
Wire Wire Line
	6450 1550 7500 1550
Wire Wire Line
	6450 1850 7650 1850
Wire Wire Line
	6450 950  8600 950 
Wire Wire Line
	6650 2050 6650 2100
Wire Wire Line
	6650 2000 6650 2050
Wire Wire Line
	6650 1750 6650 2050
Wire Wire Line
	8600 1150 9150 1150
Wire Wire Line
	6800 1050 6800 1350
Wire Wire Line
	6450 1250 9150 1250
Wire Wire Line
	7500 1350 9150 1350
Wire Wire Line
	7650 1450 9150 1450
$Comp
L Connector_Generic:Conn_01x03 J6
U 1 1 5BD3FF2D
P 1150 1450
F 0 "J6" H 1230 1492 50  0000 L CNN
F 1 "-Batt" H 1230 1401 50  0000 L CNN
F 2 "Connector_PinSocket_2.54mm:PinSocket_1x03_P2.54mm_Vertical" H 1150 1450 50  0001 C CNN
F 3 "~" H 1150 1450 50  0001 C CNN
	1    1150 1450
	-1   0    0    1   
$EndComp
$Comp
L Connector_Generic:Conn_01x03 J5
U 1 1 5BD3FFAC
P 1150 850
F 0 "J5" H 1230 892 50  0000 L CNN
F 1 "+Batt" H 1230 801 50  0000 L CNN
F 2 "Connector_PinHeader_2.54mm:PinHeader_1x03_P2.54mm_Vertical" V 1150 850 50  0001 C CNN
F 3 "~" H 1150 850 50  0001 C CNN
	1    1150 850 
	-1   0    0    1   
$EndComp
$Comp
L power:GND #PWR0104
U 1 1 5BD40932
P 1500 1600
F 0 "#PWR0104" H 1500 1350 50  0001 C CNN
F 1 "GND" H 1505 1427 50  0000 C CNN
F 2 "" H 1500 1600 50  0001 C CNN
F 3 "" H 1500 1600 50  0001 C CNN
	1    1500 1600
	1    0    0    -1  
$EndComp
$Comp
L power:+BATT #PWR0105
U 1 1 5BD409A2
P 1500 700
F 0 "#PWR0105" H 1500 550 50  0001 C CNN
F 1 "+BATT" H 1515 873 50  0000 C CNN
F 2 "" H 1500 700 50  0001 C CNN
F 3 "" H 1500 700 50  0001 C CNN
	1    1500 700 
	1    0    0    -1  
$EndComp
Wire Wire Line
	1350 750  1500 750 
Wire Wire Line
	1500 750  1500 700 
Wire Wire Line
	1350 850  1500 850 
Wire Wire Line
	1500 850  1500 750 
Connection ~ 1500 750 
Wire Wire Line
	1500 850  1500 950 
Wire Wire Line
	1350 950  1500 950 
Connection ~ 1500 850 
Wire Wire Line
	1350 1350 1500 1350
Wire Wire Line
	1500 1350 1500 1450
Wire Wire Line
	1350 1450 1500 1450
Connection ~ 1500 1450
Wire Wire Line
	1500 1450 1500 1550
Wire Wire Line
	1350 1550 1500 1550
Connection ~ 1500 1550
Wire Wire Line
	1500 1550 1500 1600
$Comp
L power:+BATT #PWR0106
U 1 1 5BD43FB5
P 7050 3600
F 0 "#PWR0106" H 7050 3450 50  0001 C CNN
F 1 "+BATT" H 7065 3773 50  0000 C CNN
F 2 "" H 7050 3600 50  0001 C CNN
F 3 "" H 7050 3600 50  0001 C CNN
	1    7050 3600
	1    0    0    -1  
$EndComp
Wire Wire Line
	6950 3750 7050 3750
Wire Wire Line
	6950 3650 7050 3650
Wire Wire Line
	7050 3650 7050 3600
$Comp
L Connector_Generic:Conn_01x03 J7
U 1 1 5BD4A163
P 5250 5200
F 0 "J7" H 5330 5242 50  0000 L CNN
F 1 "Reg6V" H 5330 5151 50  0000 L CNN
F 2 "Connector_PinSocket_2.54mm:PinSocket_1x03_P2.54mm_Vertical" V 5250 5200 50  0001 C CNN
F 3 "~" H 5250 5200 50  0001 C CNN
	1    5250 5200
	-1   0    0    -1  
$EndComp
Wire Wire Line
	5450 5300 5600 5300
Wire Wire Line
	5450 5200 6400 5200
$Comp
L power:+BATT #PWR0107
U 1 1 5BD4B416
P 6200 5050
F 0 "#PWR0107" H 6200 4900 50  0001 C CNN
F 1 "+BATT" H 6215 5223 50  0000 C CNN
F 2 "" H 6200 5050 50  0001 C CNN
F 3 "" H 6200 5050 50  0001 C CNN
	1    6200 5050
	1    0    0    -1  
$EndComp
Wire Wire Line
	5450 5100 6200 5100
Wire Wire Line
	6200 5100 6200 5050
$Comp
L power:GND #PWR0108
U 1 1 5BD4BE81
P 6400 5200
F 0 "#PWR0108" H 6400 4950 50  0001 C CNN
F 1 "GND" H 6405 5027 50  0000 C CNN
F 2 "" H 6400 5200 50  0001 C CNN
F 3 "" H 6400 5200 50  0001 C CNN
	1    6400 5200
	-1   0    0    1   
$EndComp
Connection ~ 6400 5200
Wire Wire Line
	6400 5200 6750 5200
Text Label 6250 5300 0    50   ~ 0
6Vreg
Text Label 7300 3850 0    50   ~ 0
5Vreg
$Comp
L power:+3.3V #PWR0109
U 1 1 5BD4D4A7
P 8150 5200
F 0 "#PWR0109" H 8150 5050 50  0001 C CNN
F 1 "+3.3V" H 8150 5350 50  0000 C CNN
F 2 "" H 8150 5200 50  0000 C CNN
F 3 "" H 8150 5200 50  0000 C CNN
	1    8150 5200
	1    0    0    -1  
$EndComp
Wire Wire Line
	7750 5300 8150 5300
$Comp
L power:GND #PWR0110
U 1 1 5BD4E000
P 7950 5200
F 0 "#PWR0110" H 7950 4950 50  0001 C CNN
F 1 "GND" H 7955 5027 50  0000 C CNN
F 2 "" H 7950 5200 50  0001 C CNN
F 3 "" H 7950 5200 50  0001 C CNN
	1    7950 5200
	-1   0    0    1   
$EndComp
Wire Wire Line
	8150 5200 8150 5300
Wire Wire Line
	7750 5200 7950 5200
Wire Wire Line
	7750 5800 8150 5800
Wire Wire Line
	8150 5800 8150 5300
Connection ~ 8150 5300
Wire Wire Line
	7750 5600 8650 5600
Wire Wire Line
	7750 5500 8400 5500
Text Label 8750 5500 0    50   ~ 0
PWM_B
Text Label 8750 5400 0    50   ~ 0
PWM_A
Text Label 8650 5800 0    50   ~ 0
PHASE_B
Text Label 8650 5700 0    50   ~ 0
PHASE_A
Wire Wire Line
	6250 5400 6750 5400
Wire Wire Line
	6250 5500 6750 5500
Wire Wire Line
	6250 5600 6750 5600
Wire Wire Line
	6250 5700 6750 5700
Text Label 6450 5400 0    50   ~ 0
O2_B
Text Label 6450 5500 0    50   ~ 0
O1_B
Text Label 6450 5600 0    50   ~ 0
O2_A
Text Label 6450 5700 0    50   ~ 0
O1_A
$Comp
L Connector_Generic:Conn_01x02 J13
U 1 1 5BD7CBD9
P 8250 4050
F 0 "J13" V 8123 4130 50  0000 L CNN
F 1 "5V_to_TIVA" V 8214 4130 50  0000 L CNN
F 2 "Connector_PinHeader_2.54mm:PinHeader_1x02_P2.54mm_Vertical" H 8250 4050 50  0001 C CNN
F 3 "~" H 8250 4050 50  0001 C CNN
	1    8250 4050
	0    1    1    0   
$EndComp
Wire Wire Line
	6950 3850 7750 3850
Wire Wire Line
	8250 3850 9150 3850
NoConn ~ 6750 5800
NoConn ~ 9150 850 
NoConn ~ 9150 2400
NoConn ~ 9150 2500
NoConn ~ 9150 2600
NoConn ~ 9150 2700
NoConn ~ 9150 2800
NoConn ~ 9150 2900
NoConn ~ 9150 3000
NoConn ~ 9150 3100
NoConn ~ 9150 3200
NoConn ~ 9150 5900
NoConn ~ 9150 6000
NoConn ~ 9150 6300
NoConn ~ 9150 5600
NoConn ~ 9150 4050
NoConn ~ 9150 4150
NoConn ~ 9150 4250
NoConn ~ 9150 4350
NoConn ~ 9150 4450
NoConn ~ 9150 4550
NoConn ~ 9150 4650
NoConn ~ 9150 4750
NoConn ~ 9150 1550
NoConn ~ 9150 1650
$Comp
L Connector_Generic:Conn_01x06 J14
U 1 1 5BDA91A3
P 5000 6600
F 0 "J14" H 4920 7017 50  0000 C CNN
F 1 "Conn_01x06" H 4920 6926 50  0000 C CNN
F 2 "Connector_PinSocket_2.54mm:PinSocket_1x06_P2.54mm_Vertical" H 5000 6600 50  0001 C CNN
F 3 "~" H 5000 6600 50  0001 C CNN
	1    5000 6600
	-1   0    0    -1  
$EndComp
$Comp
L power:+3.3V #PWR0111
U 1 1 5BDA92C2
P 5450 6500
F 0 "#PWR0111" H 5450 6350 50  0001 C CNN
F 1 "+3.3V" H 5450 6650 50  0000 C CNN
F 2 "" H 5450 6500 50  0000 C CNN
F 3 "" H 5450 6500 50  0000 C CNN
	1    5450 6500
	1    0    0    -1  
$EndComp
NoConn ~ 5200 6400
NoConn ~ 5200 6900
$Comp
L power:GND #PWR0112
U 1 1 5BDB1732
P 5700 6600
F 0 "#PWR0112" H 5700 6350 50  0001 C CNN
F 1 "GND" H 5705 6427 50  0000 C CNN
F 2 "" H 5700 6600 50  0001 C CNN
F 3 "" H 5700 6600 50  0001 C CNN
	1    5700 6600
	-1   0    0    1   
$EndComp
Wire Wire Line
	5200 6500 5450 6500
Wire Wire Line
	5200 6600 5700 6600
Wire Wire Line
	5200 6700 5850 6700
Wire Wire Line
	5850 6700 5850 6100
Wire Wire Line
	5200 6800 6050 6800
Wire Wire Line
	6050 6800 6050 6200
Text Label 6400 6100 0    50   ~ 0
BT_RX
Text Label 6150 6200 0    50   ~ 0
BT_TX
NoConn ~ 9150 950 
NoConn ~ 9150 1050
Wire Wire Line
	5850 6100 9150 6100
Wire Wire Line
	6050 6200 9150 6200
$Comp
L power:+5V #PWR0113
U 1 1 5BD4F6EE
P 7750 3850
F 0 "#PWR0113" H 7750 3700 50  0001 C CNN
F 1 "+5V" H 7765 4023 50  0000 C CNN
F 2 "" H 7750 3850 50  0001 C CNN
F 3 "" H 7750 3850 50  0001 C CNN
	1    7750 3850
	1    0    0    -1  
$EndComp
Connection ~ 7750 3850
Wire Wire Line
	7750 3850 8150 3850
$Comp
L power:+3.3V #PWR0114
U 1 1 5BD4F77B
P 6800 2050
F 0 "#PWR0114" H 6800 1900 50  0001 C CNN
F 1 "+3.3V" H 6800 2200 50  0000 C CNN
F 2 "" H 6800 2050 50  0000 C CNN
F 3 "" H 6800 2050 50  0000 C CNN
	1    6800 2050
	-1   0    0    1   
$EndComp
Wire Wire Line
	6800 1950 6800 2050
Connection ~ 6800 1950
Wire Wire Line
	8650 5400 9150 5400
Wire Wire Line
	8650 5400 8650 5600
Wire Wire Line
	7750 5400 8500 5400
Wire Wire Line
	8500 5400 8500 5500
Wire Wire Line
	8500 5500 9150 5500
Wire Wire Line
	8400 5800 9150 5800
Wire Wire Line
	8400 5500 8400 5800
Wire Wire Line
	7750 5700 9150 5700
$Comp
L pspice:CAP C1
U 1 1 5BD6E7BD
P 3150 1100
F 0 "C1" H 3328 1146 50  0000 L CNN
F 1 "10uF" H 3328 1055 50  0000 L CNN
F 2 "Capacitor_Tantalum_SMD:CP_EIA-7343-43_Kemet-X_Pad2.25x2.55mm_HandSolder" H 3150 1100 50  0001 C CNN
F 3 "~" H 3150 1100 50  0001 C CNN
	1    3150 1100
	1    0    0    -1  
$EndComp
$Comp
L pspice:CAP C2
U 1 1 5BD6E973
P 3900 1100
F 0 "C2" H 4078 1146 50  0000 L CNN
F 1 "10uF" H 4078 1055 50  0000 L CNN
F 2 "Capacitor_Tantalum_SMD:CP_EIA-7343-43_Kemet-X_Pad2.25x2.55mm_HandSolder" H 3900 1100 50  0001 C CNN
F 3 "~" H 3900 1100 50  0001 C CNN
	1    3900 1100
	1    0    0    -1  
$EndComp
$Comp
L power:GND #PWR0115
U 1 1 5BD6E9C1
P 3150 1350
F 0 "#PWR0115" H 3150 1100 50  0001 C CNN
F 1 "GND" H 3155 1177 50  0000 C CNN
F 2 "" H 3150 1350 50  0001 C CNN
F 3 "" H 3150 1350 50  0001 C CNN
	1    3150 1350
	1    0    0    -1  
$EndComp
$Comp
L power:GND #PWR0116
U 1 1 5BD6E9EC
P 3900 1350
F 0 "#PWR0116" H 3900 1100 50  0001 C CNN
F 1 "GND" H 3905 1177 50  0000 C CNN
F 2 "" H 3900 1350 50  0001 C CNN
F 3 "" H 3900 1350 50  0001 C CNN
	1    3900 1350
	1    0    0    -1  
$EndComp
$Comp
L power:+5V #PWR0117
U 1 1 5BD6EA17
P 3150 850
F 0 "#PWR0117" H 3150 700 50  0001 C CNN
F 1 "+5V" H 3165 1023 50  0000 C CNN
F 2 "" H 3150 850 50  0001 C CNN
F 3 "" H 3150 850 50  0001 C CNN
	1    3150 850 
	1    0    0    -1  
$EndComp
$Comp
L power:+6V #PWR0118
U 1 1 5BD70959
P 5600 5300
F 0 "#PWR0118" H 5600 5150 50  0001 C CNN
F 1 "+6V" H 5615 5473 50  0000 C CNN
F 2 "" H 5600 5300 50  0001 C CNN
F 3 "" H 5600 5300 50  0001 C CNN
	1    5600 5300
	-1   0    0    1   
$EndComp
Connection ~ 5600 5300
Wire Wire Line
	5600 5300 6750 5300
$Comp
L power:+6V #PWR0119
U 1 1 5BD709AD
P 3900 850
F 0 "#PWR0119" H 3900 700 50  0001 C CNN
F 1 "+6V" H 3915 1023 50  0000 C CNN
F 2 "" H 3900 850 50  0001 C CNN
F 3 "" H 3900 850 50  0001 C CNN
	1    3900 850 
	1    0    0    -1  
$EndComp
$EndSCHEMATC
